%YAML 1.1
%TAG !u! tag:unity3d.com,2011:
--- !u!114 &11400000
MonoBehaviour:
  m_ObjectHideFlags: 0
  m_CorrespondingSourceObject: {fileID: 0}
  m_PrefabInstance: {fileID: 0}
  m_PrefabAsset: {fileID: 0}
  m_GameObject: {fileID: 0}
  m_Enabled: 1
  m_EditorHideFlags: 0
  m_Script: {fileID: 11500000, guid: cd59703b30b9c7b4fb8fc86a2e01bcf3, type: 3}
  m_Name: Sword
  m_EditorClassIdentifier: 
  name: Sword
  icon: {fileID: 21300000, guid: 39f3fbe72b241c543a98b93f29c2924c, type: 3}
  isDefaultItem: 0
  equipSlot: 3
  mesh: {fileID: 5688771566032183365, guid: 8816117a444cbc343b406bb077553521, type: 3}
  coveredMeshRegions: 
  armorModifier: 0
  damageModifier: 5
